DSD-Labs/lab3/project_2/project_2.sim/sim_1/behav/xsim/simulate.log
Time resolution is 1 ps
          1(              200000): PASS, mode: 2, a: 004, b: 005, y: 009                                                                                                    #

          2(              300000): PASS, mode: 1, a: 004, b: 005, y: 009                                                                                                    #

          3(              400000): PASS, mode: 1, a: 004, b: 005, y: 009                                                                                                    #

          4(              500000): PASS, mode: 2, a: b00, b: 100, y: c00                                                                                                    #

          5(              600000): PASS, mode: 1, a: b00, b: 100, y: c00                                                                                                    #

          6(              700000): PASS, mode: 1, a: b00, b: 100, y: c00                                                                                                    #

          7(              800000): PASS, mode: 2, a: 7ff, b: 001, y: 800                                                                                                    #

          8(              900000): PASS, mode: 1, a: 7ff, b: 001, y: 7ff                                                                                                    #

          9(             1000000): PASS, mode: 0, a: 7ff, b: 001, y: 800                                                                                                    #

         10(             1100000): PASS, mode: 2, a: fff, b: 001, y: 000                                                                                                    #

         11(             1200000): PASS, mode: 1, a: fff, b: 001, y: 000                                                                                                    #

         12(             1300000): PASS, mode: 0, a: fff, b: 001, y: fff                                                                                            #unsigned

         13(             1400000): PASS, mode: 2, a: 800, b: fff, y: 7ff                                                                                                    #

         14(             1500000): PASS, mode: 1, a: 800, b: fff, y: 800                                                                                                    #

         15(             1600000): PASS, mode: 0, a: 800, b: fff, y: fff                                                                                                    #

         16(             1700000): PASS, mode: 0, a: 86c, b: fde, y: fff     «È              «©8        «	   «­             Éü€            Ê€ «
0Éô€    «     

         17(             1800000): PASS, mode: 0, a: 597, b: ecc, y: fff     «È :               :    £Ú@    Éõ             Éü€    Éê      Ê€ «
0Éô€    «     

         18(             1900000): PASS, mode: 0, a: f93, b: 539, y: fff      9  :Ê€      c«       «
h«
h @ý?            Éü€ « Éê  £Ú@Ê€       c     9¨ :

         19(             2000000): PASS, mode: 0, a: f68, b: d06, y: fff      9  :Ê€      Ì«       «
h«
h @ý?            Éü€ « Éê  £Ú@Ê€       Ì     9¨ :

         20(             2100000): PASS, mode: 0, a: 1a3, b: 2fc, y: 49f      9  :Ê€      n«       «
h«
h @ý?            Éü€ « Éê  £Ú@Ê€       n     9¨ :

         21(             2200000): PASS, mode: 0, a: 551, b: a5c, y: fad      9  :Ê€      Ÿ«       «
h«
h @ý?            Éü€ « Éê  £Ú@Ê€       Ÿ     9¨ :

         22(             2300000): PASS, mode: 0, a: d6d, b: f33, y: fff     «È  ­            «       «
h«
h @ý?            Éü€    Éê      Ê€   ­Éô€    «     

         23(             2400000): PASS, mode: 0, a: 0a8, b: c50, y: cf8      9  :Ê€       «       «
h«
h @ý?            Éü€ « Éê  £Ú@Ê€             9¨ :

         24(             2500000): PASS, mode: 0, a: 916, b: de9, y: fff      9  :Ê€      ø«       «
h«
h @ý?            Éü€ « Éê  £Ú@Ê€       ø     9¨ :

         25(             2600000): PASS, mode: 0, a: d7b, b: 38a, y: fff      9  :Ê€      ÿ«       «
h«
h @ý?            Éü€ « Éê  £Ú@Ê€       ÿ     9¨ :

         26(             2700000): PASS, mode: 0, a: a10, b: 8a8, y: fff      9  :Ê€      «       «
h«
h @ý?            Éü€ « Éê  £Ú@Ê€            9¨ :

         27(             2800000): PASS, mode: 0, a: f96, b: 9f9, y: fff      9  :Ê€      ¸«       «
h«
h @ý?            Éü€ « Éê  £Ú@Ê€       ¸     9¨ :

         28(             2900000): PASS, mode: 0, a: 6f0, b: 0ed, y: 7dd     «È :               :    £Ú@    Éõ             Éü€    Éê      Ê€ «
0Éô€    «     

         29(             3000000): PASS, mode: 0, a: 5e5, b: e82, y: fff     «È  Ý                 :    £Ú@    Éõ             Éü€    Éê      Ê€   ÝÉô€    «     

         30(             3100000): PASS, mode: 0, a: d34, b: 564, y: fff      9  :Ê€      g«       «
h«
h @ý?            Éü€ « Éê  £Ú@Ê€       g     9¨ :

         31(             3200000): PASS, mode: 1, a: 893, b: ba1, y: 800      9  :Ê€      ˜«       «
h«
h @ý?            Éü€ « Éê  £Ú@Ê€       ˜     9¨ :

         32(             3300000): PASS, mode: 1, a: af1, b: eb7, y: 9a8      9  :Ê€      4«       «
h«
h @ý?            Éü€ « Éê  £Ú@Ê€       4     9¨ :

         33(             3400000): PASS, mode: 1, a: a04, b: c54, y: 800      9  :Ê€      ¨«       «
h«
h @ý?            Éü€ « Éê  £Ú@Ê€       ¨     9¨ :

         34(             3500000): PASS, mode: 1, a: 84e, b: a98, y: 800     «È : @õx            :    £Ú@    Éõ             Éü€    Éê      Ê€ «
0Éô€    «     

         35(             3600000): PASS, mode: 1, a: 967, b: 8e9, y: 800      9  :Ê€      æ«       «
h«
h @ý?            Éü€ « Éê  £Ú@Ê€       æ     9¨ :

         36(             3700000): PASS, mode: 1, a: af7, b: ce5, y: 800      9  :Ê€      P«       «
h«
h @ý?            Éü€ « Éê  £Ú@Ê€       P     9¨ :

         37(             3800000): PASS, mode: 1, a: 92d, b: c4b, y: 800     «È : @õx            :    £Ú@    Éõ             Éü€    Éê      Ê€ «
0Éô€    «     

         38(             3900000): PASS, mode: 1, a: acf, b: bcb, y: 800      9  :Ê€      x«       «
h«
h @ý?            Éü€ « Éê  £Ú@Ê€       x     9¨ :

         39(             4000000): PASS, mode: 1, a: bd6, b: c76, y: 84c      9  :Ê€      š«       «
h«
h @ý?            Éü€ « Éê  £Ú@Ê€       š     9¨ :

         40(             4100000): PASS, mode: 1, a: be0, b: d8b, y: 96b     «È :  v      L     :    £Ú@    Éõ             Éü€    Éê      Ê€     Éô€  L«     

         41(             4200000): PASS, mode: 1, a: a97, b: 864, y: 800      9  :Ê€      k«       «
h«
h @ý?            Éü€ « Éê  £Ú@Ê€       k     9¨ :

         42(             4300000): PASS, mode: 1, a: aa9, b: e2f, y: 8d8      9  :Ê€      û«       «
h«
h @ý?            Éü€ « Éê  £Ú@Ê€       û     9¨ :

         43(             4400000): PASS, mode: 1, a: a03, b: e78, y: 87b      9  :Ê€      Ø«       «
h«
h @ý?            Éü€ « Éê  £Ú@Ê€       Ø     9¨ :

         44(             4500000): PASS, mode: 1, a: 9ec, b: b94, y: 800      9  :Ê€      {«       «
h«
h @ý?            Éü€ « Éê  £Ú@Ê€       {     9¨ :

         45(             4600000): PASS, mode: 1, a: 92a, b: ccb, y: 800      9  :Ê€      €«       «
h«
h @ý?            Éü€ « Éê  £Ú@Ê€       €     9¨ :

         46(             4700000): PASS, mode: 1, a: 50b, b: 6d3, y: 7ff      9  :Ê€      õ«       «
h«
h @ý?            Éü€ « Éê  £Ú@Ê€       õ     9¨ :

         47(             4800000): PASS, mode: 1, a: 5af, b: 405, y: 7ff      9  :Ê€      Þ«       «
h«
h @ý?            Éü€ « Éê  £Ú@Ê€       Þ     9¨ :

         48(             4900000): PASS, mode: 1, a: 747, b: 4a5, y: 7ff      9  :Ê€      	´«       «
h«
h @ý?            Éü€ « Éê  £Ú@Ê€       	´     9¨ :

         49(             5000000): PASS, mode: 1, a: 656, b: 02d, y: 683      9  :Ê€      ì«       «
h«
h @ý?            Éü€ « Éê  £Ú@Ê€       ì     9¨ :

         50(             5100000): PASS, mode: 1, a: 568, b: 2ea, y: 7ff      9  :Ê€      ƒ«       «
h«
h @ý?            Éü€ « Éê  £Ú@Ê€       ƒ     9¨ :

         51(             5200000): PASS, mode: 1, a: 654, b: 2cc, y: 7ff     «È : @õx      ÿ     :    £Ú@    Éõ             Éü€    Éê      Ê€ «
0Éô€    «     

         52(             5300000): PASS, mode: 1, a: 400, b: 301, y: 701      9  :Ê€      	 «       «
h«
h @ý?            Éü€ « Éê  £Ú@Ê€       	      9¨ :

         53(             5400000): PASS, mode: 1, a: 589, b: 2a5, y: 7ff     «È :             :    £Ú@    Éõ             Éü€    Éê      Ê€     Éô€  «     

         54(             5500000): PASS, mode: 1, a: 426, b: 0df, y: 505     «È : @õx      ÿ     :    £Ú@    Éõ             Éü€    Éê      Ê€ «
0Éô€    «     

         55(             5600000): PASS, mode: 1, a: 436, b: 53a, y: 7ff      9  :Ê€      «       «
h«
h @ý?            Éü€ « Éê  £Ú@Ê€            9¨ :

         56(             5700000): PASS, mode: 1, a: 79f, b: 5cc, y: 7ff      9  :Ê€      	p«       «
h«
h @ý?            Éü€ « Éê  £Ú@Ê€       	p     9¨ :

         57(             5800000): PASS, mode: 1, a: 691, b: 1ce, y: 7ff      9  :Ê€      
k«       «
h«
h @ý?            Éü€ « Éê  £Ú@Ê€       
k     9¨ :

         58(             5900000): PASS, mode: 1, a: 6a8, b: 144, y: 7ec      9  :Ê€      _«       «
h«
h @ý?            Éü€ « Éê  £Ú@Ê€       _     9¨ :

         59(             6000000): PASS, mode: 1, a: 65b, b: 010, y: 66b     «È :  D      ì     :    £Ú@    Éõ             Éü€    Éê      Ê€     Éô€  ì«     

         60(             6100000): PASS, mode: 1, a: 4f5, b: 6c6, y: 7ff      9  :Ê€      k«       «
h«
h @ý?            Éü€ « Éê  £Ú@Ê€       k     9¨ :

         61(             6200000): PASS, mode: 1, a: e1c, b: 134, y: f50      9  :Ê€      »«       «
h«
h @ý?            Éü€ « Éê  £Ú@Ê€       »     9¨ :

         62(             6300000): PASS, mode: 1, a: 8f8, b: 7ef, y: 0e7     «È :  4      P«       «
h«
h @ý?            Éü€    Éê      Ê€     Éô€  P«     

         63(             6400000): PASS, mode: 1, a: dfe, b: 17a, y: f78     «È :  ï       ç«       «
h«
h @ý?            Éü€    Éê      Ê€     Éô€   ç«     

         64(             6500000): PASS, mode: 1, a: 90f, b: 318, y: c27     «È :  z      x«       «
h«
h @ý?            Éü€    Éê      Ê€     Éô€  x«     

         65(             6600000): PASS, mode: 1, a: b8b, b: 7d3, y: 35e      9  :Ê€      '«       «
h«
h @ý?            Éü€ « Éê  £Ú@Ê€       '     9¨ :

         66(             6700000): PASS, mode: 1, a: ee8, b: 6dc, y: 5c4     «È :  Ó      ^«       «
h«
h @ý?            Éü€    Éê      Ê€     Éô€  ^«     

         67(             6800000): PASS, mode: 1, a: d20, b: 7e0, y: 500      9  :Ê€      Ä«       «
h«
h @ý?            Éü€ « Éê  £Ú@Ê€       Ä     9¨ :

         68(             6900000): PASS, mode: 1, a: b7a, b: 24f, y: dc9      9  :Ê€       «       «
h«
h @ý?            Éü€ « Éê  £Ú@Ê€             9¨ :

         69(             7000000): PASS, mode: 1, a: c9f, b: 5b9, y: 258      9  :Ê€      
É«       «
h«
h @ý?            Éü€ « Éê  £Ú@Ê€       
É     9¨ :

         70(             7100000): PASS, mode: 1, a: 995, b: 36f, y: d04     «È :  ¹      X«       «
h«
h @ý?            Éü€    Éê      Ê€     Éô€  X«     

         71(             7200000): PASS, mode: 1, a: cc3, b: 40c, y: 0cf      9  :Ê€      
«       «
h«
h @ý?            Éü€ « Éê  £Ú@Ê€       
     9¨ :

         72(             7300000): PASS, mode: 1, a: 812, b: 107, y: 919      9  :Ê€      Ï«       «
h«
h @ý?            Éü€ « Éê  £Ú@Ê€       Ï     9¨ :

         73(             7400000): PASS, mode: 1, a: 9fb, b: 194, y: b8f      9  :Ê€      	«       «
h«
h @ý?            Éü€ « Éê  £Ú@Ê€       	     9¨ :

         74(             7500000): PASS, mode: 1, a: 817, b: 6eb, y: f02      9  :Ê€      «       «
h«
h @ý?            Éü€ « Éê  £Ú@Ê€            9¨ :

         75(             7600000): PASS, mode: 1, a: ac4, b: 40e, y: ed2      9  :Ê€      «       «
h«
h @ý?            Éü€ « Éê  £Ú@Ê€            9¨ :

         76(             7700000): PASS, mode: 1, a: ac4, b: 40e, y: ed2      9  :Ê€      «       «
h«
h @ý?            Éü€ « Éê  £Ú@Ê€            9¨ :

         77(             7800000): PASS, mode: 1, a: ac4, b: 40e, y: ed2      9  :Ê€      «       «
h«
h @ý?            Éü€ « Éê  £Ú@Ê€            9¨ :

         78(             7900000): PASS, mode: 1, a: ac4, b: 40e, y: ed2      9  :Ê€      «       «
h«
h @ý?            Éü€ « Éê  £Ú@Ê€            9¨ :

         79(             8000000): PASS, mode: 1, a: ac4, b: 40e, y: ed2      9  :Ê€      «       «
h«
h @ý?            Éü€ « Éê  £Ú@Ê€            9¨ :

         80(             8100000): PASS, mode: 1, a: ac4, b: 40e, y: ed2      9  :Ê€      «       «
h«
h @ý?            Éü€ « Éê  £Ú@Ê€            9¨ :

         81(             8200000): PASS, mode: 1, a: ac4, b: 40e, y: ed2      9  :Ê€      «       «
h«
h @ý?            Éü€ « Éê  £Ú@Ê€            9¨ :

         82(             8300000): PASS, mode: 1, a: ac4, b: 40e, y: ed2      9  :Ê€      «       «
h«
h @ý?            Éü€ « Éê  £Ú@Ê€            9¨ :

         83(             8400000): PASS, mode: 1, a: ac4, b: 40e, y: ed2      9  :Ê€      «       «
h«
h @ý?            Éü€ « Éê  £Ú@Ê€            9¨ :

PASS: All vectors passed.

$finish called at time : 8400 ns : File "C:/Users/coope/Documents/MSU-ECE-DSD/lab3/tb_satadd.sv" Line 67
