DSD-Labs/lab3/project_2/project_2.sim/sim_1/impl/timing/xsim/simulate.log
Time resolution is 1 ps
WARNING: file ../../../../satadd_vectors.txt could not be opened
          1(              200000): PASS, mode: 2, a: 004, b: 005, y: 009                                                                                                    #

          2(              300000): PASS, mode: 1, a: 004, b: 005, y: 009                                                                                                    #

          3(              400000): PASS, mode: 1, a: 004, b: 005, y: 009                                                                                                    #

          4(              500000): PASS, mode: 2, a: b00, b: 100, y: c00                                                                                                    #

          5(              600000): PASS, mode: 1, a: b00, b: 100, y: c00                                                                                                    #

          6(              700000): PASS, mode: 1, a: b00, b: 100, y: c00                                                                                                    #

          7(              800000): PASS, mode: 2, a: 7ff, b: 001, y: 800                                                                                                    #

          8(              900000): PASS, mode: 1, a: 7ff, b: 001, y: 7ff                                                                                                    #

          9(             1000000): PASS, mode: 0, a: 7ff, b: 001, y: 800                                                                                                    #

         10(             1100000): PASS, mode: 2, a: fff, b: 001, y: 000                                                                                                    #

         11(             1200000): PASS, mode: 1, a: fff, b: 001, y: 000                                                                                                    #

         12(             1300000): PASS, mode: 0, a: fff, b: 001, y: fff                                                                                            #unsigned

         13(             1400000): PASS, mode: 2, a: 800, b: fff, y: 7ff                                                                                                    #

         14(             1500000): PASS, mode: 1, a: 800, b: fff, y: 800                                                                                                    #

         15(             1600000): PASS, mode: 0, a: 800, b: fff, y: fff                                                                                                    #

         16(             1700000): PASS, mode: 0, a: 86c, b: fde, y: fff             ÉB€      ÿ             @¶þ
È A³o            É9€   ÿ    þ €É2 ¡¡À¡Ûø¡ÜXª`€  
4

         17(             1800000): PASS, mode: 0, a: 597, b: ecc, y: fff     þ ¨    ©H˜                   @x§ÿë¨É'              É9€                        o    ÿë 

         18(             1900000): PASS, mode: 0, a: f93, b: 539, y: fff             ÉB€      ÿ             @¶þ
È A³o            É9€   ÿ    þ €É2 ¡¡À¡Ûø¡ÜX©º4  
:

         19(             2000000): PASS, mode: 0, a: f68, b: d06, y: fff     þ ¨    ªCø                   @” (É'              É9€                               €

         20(             2100000): PASS, mode: 0, a: 1a3, b: 2fc, y: 49f     þ ¨    ©H˜                   @x§ÿë¨É'              É9€                        o    ÿë 

         21(             2200000): PASS, mode: 0, a: 551, b: a5c, y: fad             ÉB€      Ÿ             @¶þ
È A³o            É9€   Ÿ    þ €É2 ¡¡À¡Ûø¡ÜX©ÔŒ  
/

         22(             2300000): PASS, mode: 0, a: d6d, b: f33, y: fff             ÉB€      ­             @¶þ
È A³o            É9€   ­    þ €É2 ¡¡À¡Ûø¡ÜXª_x  
6

         23(             2400000): PASS, mode: 0, a: 0a8, b: c50, y: cf8             ÉB€      ÿ             @¶þ
È A³o            É9€   ÿ    þ €É2 ¡¡À¡Ûø¡ÜX©Ô  
7

         24(             2500000): PASS, mode: 0, a: 916, b: de9, y: fff             ÉB€      ø             @¶þ
È A³o            É9€   ø    þ €É2 ¡¡À¡Ûø¡ÜX©°   
4

         25(             2600000): PASS, mode: 0, a: d7b, b: 38a, y: fff             ÉB€      ÿ             @¶þ
È A³o            É9€   ÿ    þ €É2 ¡¡À¡Ûø¡ÜXª‹   
7

         26(             2700000): PASS, mode: 0, a: a10, b: 8a8, y: fff             ÉB€      ÿ             @¶þ
È A³o            É9€   ÿ    þ €É2 ¡¡À¡Ûø¡ÜX©Ó„  
:

         27(             2800000): PASS, mode: 0, a: f96, b: 9f9, y: fff             ÉB€      ÿ             @¶þ
È A³o            É9€   ÿ    þ €É2 ¡¡À¡Ûø¡ÜX©¾¸  
7

         28(             2900000): PASS, mode: 0, a: 6f0, b: 0ed, y: 7dd     þ ¨    ªV|                   @d×ÿÎhÉ'              É9€                      ÿ}    ÿÍÀ

         29(             3000000): PASS, mode: 0, a: 5e5, b: e82, y: fff             ÉB€      Ý             @¶þ
È A³o            É9€   Ý    þ €É2 ¡¡À¡Ûø¡ÜX©°   
4

         30(             3100000): PASS, mode: 0, a: d34, b: 564, y: fff             ÉB€      ÿ             @¶þ
È A³o            É9€   ÿ    þ €É2 ¡¡À¡Ûø¡ÜX©æ4  
:

         31(             3200000): PASS, mode: 1, a: 893, b: ba1, y: 800     þ ¨    ªCø                   @” (É'              É9€                               €

         32(             3300000): PASS, mode: 1, a: af1, b: eb7, y: 9a8             ÉB€                    @¶þ
È A³o            É9€        þ €É2 ¡¡À¡Ûø¡ÜX©â˜  
$

         33(             3400000): PASS, mode: 1, a: a04, b: c54, y: 800             ÉB€      	¨             @¶þ
È A³o            É9€   	¨    þ €É2 ¡¡À¡Ûø¡ÜX©·¬  
4

         34(             3500000): PASS, mode: 1, a: 84e, b: a98, y: 800             ÉB€                    @¶þ
È A³o            É9€        þ €É2 ¡¡À¡Ûø¡ÜX©Ïè  
$

         35(             3600000): PASS, mode: 1, a: 967, b: 8e9, y: 800     þ ¨    ©Jx                   @u·ÿç(É'              É9€                      !x    ÿæ€

         36(             3700000): PASS, mode: 1, a: af7, b: ce5, y: 800     þ ¨    ªV|                   @d×ÿÎhÉ'              É9€                      ÿ}    ÿÍÀ

         37(             3800000): PASS, mode: 1, a: 92d, b: c4b, y: 800     þ ¨    ©t                    @C·ÿœèÉ'              É9€                      !    ÿœ@

         38(             3900000): PASS, mode: 1, a: acf, b: bcb, y: 800             ÉB€                    @¶þ
È A³o            É9€        þ €É2 ¡¡À¡Ûø¡ÜX©â˜  
$

         39(             4000000): PASS, mode: 1, a: bd6, b: c76, y: 84c             ÉB€                    @¶þ
È A³o            É9€        þ €É2 ¡¡À¡Ûø¡ÜX©Ïè  
$

         40(             4100000): PASS, mode: 1, a: be0, b: d8b, y: 96b             ÉB€      L             @¶þ
È A³o            É9€   L    þ €É2 ¡¡À¡Ûø¡ÜXªƒ”  
5

         41(             4200000): PASS, mode: 1, a: a97, b: 864, y: 800             ÉB€      	k             @¶þ
È A³o            É9€   	k    þ €É2 ¡¡À¡Ûø¡ÜX©¸ð  
4

         42(             4300000): PASS, mode: 1, a: aa9, b: e2f, y: 8d8             ÉB€                    @¶þ
È A³o            É9€        þ €É2 ¡¡À¡Ûø¡ÜX©â˜  
$

         43(             4400000): PASS, mode: 1, a: a03, b: e78, y: 87b             ÉB€      Ø             @¶þ
È A³o            É9€   Ø    þ €É2 ¡¡À¡Ûø¡ÜX©æ4  
:

         44(             4500000): PASS, mode: 1, a: 9ec, b: b94, y: 800             ÉB€      {             @¶þ
È A³o            É9€   {    þ €É2 ¡¡À¡Ûø¡ÜXª•,  
4

         45(             4600000): PASS, mode: 1, a: 92a, b: ccb, y: 800             ÉB€                    @¶þ
È A³o            É9€        þ €É2 ¡¡À¡Ûø¡ÜX©Ïè  
$

         46(             4700000): PASS, mode: 1, a: 50b, b: 6d3, y: 7ff     þ ¨    ©7¸                   @” (É'              É9€                      ÿa°     €

         47(             4800000): PASS, mode: 1, a: 5af, b: 405, y: 7ff             ÉB€      ÿ             @¶þ
È A³o            É9€   ÿ    þ €É2 ¡¡À¡Ûø¡ÜXªo  
$

         48(             4900000): PASS, mode: 1, a: 747, b: 4a5, y: 7ff     þ ¨    ª5p                   @u·ÿç(É'              É9€ !xÉ<€              !    ÿæ€

         49(             5000000): PASS, mode: 1, a: 656, b: 02d, y: 683     þ ¨    ©TÈ                   @d×ÿÎhÉ'              É9€                      !    ÿÍÀ

         50(             5100000): PASS, mode: 1, a: 568, b: 2ea, y: 7ff             ÉB€      ƒ             @¶þ
È A³o            É9€   ƒ    þ €É2 ¡¡À¡Ûø¡ÜX©Ò|  
4

         51(             5200000): PASS, mode: 1, a: 654, b: 2cc, y: 7ff             ÉB€      ÿ             @¶þ
È A³o            É9€   ÿ    þ €É2 ¡¡À¡Ûø¡ÜXªn„  
$

         52(             5300000): PASS, mode: 1, a: 400, b: 301, y: 701     þ ¨    ©TÈ                   @d×ÿÎhÉ'              É9€                      ÿ}    ÿÍÀ

         53(             5400000): PASS, mode: 1, a: 589, b: 2a5, y: 7ff             ÉB€                   @¶þ
È A³o            É9€       þ €É2 ¡¡À¡Ûø¡ÜXª•,  
4

         54(             5500000): PASS, mode: 1, a: 426, b: 0df, y: 505             ÉB€      ÿ             @¶þ
È A³o            É9€   ÿ    þ €É2 ¡¡À¡Ûø¡ÜXªn„  
$

         55(             5600000): PASS, mode: 1, a: 436, b: 53a, y: 7ff             ÉB€                   @¶þ
È A³o            É9€       þ €É2 ¡¡À¡Ûø¡ÜXª^p  
7

         56(             5700000): PASS, mode: 1, a: 79f, b: 5cc, y: 7ff             ÉB€      ÿ             @¶þ
È A³o            É9€   ÿ    þ €É2 ¡¡À¡Ûø¡ÜXªoŒ  
$

         57(             5800000): PASS, mode: 1, a: 691, b: 1ce, y: 7ff     þ ¨    ª5p                   @u·ÿç(É'              É9€                       ˜À    ÿæ€

         58(             5900000): PASS, mode: 1, a: 6a8, b: 144, y: 7ec     þ ¨    ª5p                   @u·ÿç(É'              É9€                      ÿa°    ÿæ€

         59(             6000000): PASS, mode: 1, a: 65b, b: 010, y: 66b             ÉB€      ì             @¶þ
È A³o            É9€   ì    þ €É2 ¡¡À¡Ûø¡ÜX©Ðl  
3

         60(             6100000): PASS, mode: 1, a: 4f5, b: 6c6, y: 7ff             ÉB€      k             @¶þ
È A³o            É9€   k    þ €É2 ¡¡À¡Ûø¡ÜX©æ¸  
7

         61(             6200000): PASS, mode: 1, a: e1c, b: 134, y: f50             ÉB€      ÿ             @¶þ
È A³o            É9€   ÿ    þ €É2 ¡¡À¡Ûø¡ÜXªoŒ  
$

         62(             6300000): PASS, mode: 1, a: 8f8, b: 7ef, y: 0e7             ÉB€      P             @¶þ
È A³o            É9€   P    þ €É2 ¡¡À¡Ûø¡ÜXª¨È  
4

         63(             6400000): PASS, mode: 1, a: dfe, b: 17a, y: f78             ÉB€       ç             @¶þ
È A³o            É9€    ç    þ €É2 ¡¡À¡Ûø¡ÜXª•,  
4

         64(             6500000): PASS, mode: 1, a: 90f, b: 318, y: c27             ÉB€      x             @¶þ
È A³o            É9€   x    þ €É2 ¡¡À¡Ûø¡ÜXªoŒ  
$

         65(             6600000): PASS, mode: 1, a: b8b, b: 7d3, y: 35e             ÉB€      '             @¶þ
È A³o            É9€   '    þ €É2 ¡¡À¡Ûø¡ÜXª•,  
4

         66(             6700000): PASS, mode: 1, a: ee8, b: 6dc, y: 5c4             ÉB€      ^             @¶þ
È A³o            É9€   ^    þ €É2 ¡¡À¡Ûø¡ÜXª—<  
4

         67(             6800000): PASS, mode: 1, a: d20, b: 7e0, y: 500             ÉB€      Ä             @¶þ
È A³o            É9€   Ä    þ €É2 ¡¡À¡Ûø¡ÜX©Ò|  
4

         68(             6900000): PASS, mode: 1, a: b7a, b: 24f, y: dc9             ÉB€                    @¶þ
È A³o            É9€        þ €É2 ¡¡À¡Ûø¡ÜXª•°  
7

         69(             7000000): PASS, mode: 1, a: c9f, b: 5b9, y: 258             ÉB€      
É             @¶þ
È A³o            É9€   
É    þ €É2 ¡¡À¡Ûø¡ÜX©Ñø  
6

         70(             7100000): PASS, mode: 1, a: 995, b: 36f, y: d04             ÉB€      X             @¶þ
È A³o            É9€   X    þ €É2 ¡¡À¡Ûø¡ÜXª‡  
/

         71(             7200000): PASS, mode: 1, a: cc3, b: 40c, y: 0cf             ÉB€      
             @¶þ
È A³o            É9€   
    þ €É2 ¡¡À¡Ûø¡ÜXª_x  
6

         72(             7300000): PASS, mode: 1, a: 812, b: 107, y: 919             ÉB€       Ï             @¶þ
È A³o            É9€    Ï    þ €É2 ¡¡À¡Ûø¡ÜX©Ó„  
:

         73(             7400000): PASS, mode: 1, a: 9fb, b: 194, y: b8f             ÉB€      	             @¶þ
È A³o            É9€   	    þ €É2 ¡¡À¡Ûø¡ÜX©å°  
4

         74(             7500000): PASS, mode: 1, a: 817, b: 6eb, y: f02             ÉB€                   @¶þ
È A³o            É9€       þ €É2 ¡¡À¡Ûø¡ÜX©Ñø  
6

         75(             7600000): PASS, mode: 1, a: ac4, b: 40e, y: ed2             ÉB€                   @¶þ
È A³o            É9€       þ €É2 ¡¡À¡Ûø¡ÜXª_x  
6

         76(             7700000): PASS, mode: 1, a: ac4, b: 40e, y: ed2             ÉB€                   @¶þ
È A³o            É9€       þ €É2 ¡¡À¡Ûø¡ÜXª_x  
6

         77(             7800000): PASS, mode: 1, a: ac4, b: 40e, y: ed2             ÉB€                   @¶þ
È A³o            É9€       þ €É2 ¡¡À¡Ûø¡ÜXª_x  
6

         78(             7900000): PASS, mode: 1, a: ac4, b: 40e, y: ed2             ÉB€                   @¶þ
È A³o            É9€       þ €É2 ¡¡À¡Ûø¡ÜXª_x  
6

         79(             8000000): PASS, mode: 1, a: ac4, b: 40e, y: ed2             ÉB€                   @¶þ
È A³o            É9€       þ €É2 ¡¡À¡Ûø¡ÜXª_x  
6

         80(             8100000): PASS, mode: 1, a: ac4, b: 40e, y: ed2             ÉB€                   @¶þ
È A³o            É9€       þ €É2 ¡¡À¡Ûø¡ÜXª_x  
6

         81(             8200000): PASS, mode: 1, a: ac4, b: 40e, y: ed2             ÉB€                   @¶þ
È A³o            É9€       þ €É2 ¡¡À¡Ûø¡ÜXª_x  
6

         82(             8300000): PASS, mode: 1, a: ac4, b: 40e, y: ed2             ÉB€                   @¶þ
È A³o            É9€       þ €É2 ¡¡À¡Ûø¡ÜXª_x  
6

         83(             8400000): PASS, mode: 1, a: ac4, b: 40e, y: ed2             ÉB€                   @¶þ
È A³o            É9€       þ €É2 ¡¡À¡Ûø¡ÜXª_x  
6

PASS: All vectors passed.

$finish called at time : 8400 ns : File "C:/Users/coope/Documents/MSU-ECE-DSD/lab3/tb_satadd.sv" Line 67
