DSD-Labs/lab3/project_1/project_1.sim/sim_1/behav/xsim/simulate.log
Time resolution is 1 ps
WARNING: file ../../../../satadd_vectors.txt could not be opened
          1(              200000): PASS, mode: 2, a: 004, b: 005, y: 009                                                                                                    #

          2(              300000): PASS, mode: 1, a: 004, b: 005, y: 009                                                                                                    #

          3(              400000): PASS, mode: 1, a: 004, b: 005, y: 009                                                                                                    #

          4(              500000): PASS, mode: 2, a: b00, b: 100, y: c00                                                                                                    #

          5(              600000): PASS, mode: 1, a: b00, b: 100, y: c00                                                                                                    #

          6(              700000): PASS, mode: 1, a: b00, b: 100, y: c00                                                                                                    #

          7(              800000): PASS, mode: 2, a: 7ff, b: 001, y: 800                                                                                                    #

          8(              900000): PASS, mode: 1, a: 7ff, b: 001, y: 7ff                                                                                                    #

          9(             1000000): PASS, mode: 0, a: 7ff, b: 001, y: 800                                                                                                    #

         10(             1100000): PASS, mode: 2, a: fff, b: 001, y: 000                                                                                                    #

         11(             1200000): PASS, mode: 1, a: fff, b: 001, y: 000                                                                                                    #

         12(             1300000): PASS, mode: 0, a: fff, b: 001, y: fff                                                                                            #unsigned

         13(             1400000): PASS, mode: 2, a: 800, b: fff, y: 7ff                                                                                                    #

         14(             1500000): PASS, mode: 1, a: 800, b: fff, y: 800                                                                                                    #

         15(             1600000): PASS, mode: 0, a: 800, b: fff, y: fff                                                                                                    #

         16(             1700000): PASS, mode: 0, a: 86c, b: fde, y: fff     ú∞x              úÈH        ú∏   úÌ@            sÄ           s%Äú∏∞sÄ    ú∞P    

         17(             1800000): PASS, mode: 0, a: 597, b: ecc, y: fff     ú∞x                  ì&ê    ì&ê    s              sÄ   ó$∞    s%Äú∏∞sÄ    ú∞P    

         18(             1900000): PASS, mode: 0, a: f93, b: 539, y: fff     ú∞x                 ì&ê    ì&êú∞xs              sÄ   ú’»    s%Äú∏∞sÄ    ú∞P    

         19(             2000000): PASS, mode: 0, a: f68, b: d06, y: fff     ú∞x                 ì&ê    ì&êú∞xs              sÄ   ú’»    s%Äú∏∞sÄ    ú∞P    

         20(             2100000): PASS, mode: 0, a: 1a3, b: 2fc, y: 49f     ú∞x                  ì&ê    ì&êúÏPs              sÄ   ó"ê    s%Äú∏∞sÄ    ú∞P    

         21(             2200000): PASS, mode: 0, a: 551, b: a5c, y: fad     ú∞x  ü               ì&ê    ì&êú∞xs              sÄ   ú’»    s%Ä  üsÄ    ú∞P    

         22(             2300000): PASS, mode: 0, a: d6d, b: f33, y: fff     ú∞x  ≠                ì&ê    ì&êúÏPs              sÄ   ó&     s%Ä  ≠sÄ    ú∞P    

         23(             2400000): PASS, mode: 0, a: 0a8, b: c50, y: cf8     ú∞x  ≠             ì&ê    ì&êú∞xs              sÄ   ú’»    s%Äú∏∞sÄ    ú∞P    

         24(             2500000): PASS, mode: 0, a: 916, b: de9, y: fff     ú∞x  ¯               ì&ê    ì&êú∞xs              sÄ   ú’»    s%Ä  ¯sÄ    ú∞P    

         25(             2600000): PASS, mode: 0, a: d7b, b: 38a, y: fff     ú∞x  ¯              ì&ê    ì&ê    s              sÄ   ú’»    s%Äú∏∞sÄ    ú∞P    

         26(             2700000): PASS, mode: 0, a: a10, b: 8a8, y: fff     ú∞x  ¯              ì&ê    ì&ê    s              sÄ   ó#ê    s%Äú∏∞sÄ    ú∞P    

         27(             2800000): PASS, mode: 0, a: f96, b: 9f9, y: fff     ú∞x  ¯              ì&ê    ì&ê    s              sÄ   ó$∞    s%Äú∏∞sÄ    ú∞P    

         28(             2900000): PASS, mode: 0, a: 6f0, b: 0ed, y: 7dd     ú∞x  ¯              ì&ê    ì&ê    s              sÄ   ó&0    s%Äú∏∞sÄ    ú∞P    

         29(             3000000): PASS, mode: 0, a: 5e5, b: e82, y: fff     ú∞x  ›               ì&ê    ì&êú∞xs              sÄ   ú’»    s%Ä  ›sÄ    ú∞P    

         30(             3100000): PASS, mode: 0, a: d34, b: 564, y: fff     ú∞x  ›              ì&ê    ì&êúÏPs              sÄ   ó$0    s%Äú∏∞sÄ    ú∞P    

         31(             3200000): PASS, mode: 1, a: 893, b: ba1, y: 800     ú∞x  ›             ì&ê    ì&êú∞xs              sÄ   ú’»    s%Äú∏∞sÄ    ú∞P    

         32(             3300000): PASS, mode: 1, a: af1, b: eb7, y: 9a8     ú∞x  › @Ë           ì&ê    ì&ê    s              sÄ   ó#∞    s%Äú∏∞sÄ    ú∞P    

         33(             3400000): PASS, mode: 1, a: a04, b: c54, y: 800     ú∞x  ›  ∑      	®    ì&ê    ì&ê    s              sÄ   ó#ê    s%Ä    sÄ  	®ú∞P    

         34(             3500000): PASS, mode: 1, a: 84e, b: a98, y: 800     ú∞x  › @Ë           ì&ê    ì&ê    s              sÄ   ó$p    s%Äú∏∞sÄ    ú∞P    

         35(             3600000): PASS, mode: 1, a: 967, b: 8e9, y: 800     ú∞x  › @Í          
ì&ê          Ês              sÄ   ó$†    s%Äú∏∞sÄ    ú∞P    

         36(             3700000): PASS, mode: 1, a: af7, b: ce5, y: 800     ú∞x  › @Í          
ì&ê          Ps              sÄ   ó%P    s%Äú∏∞sÄ    ú∞P    

         37(             3800000): PASS, mode: 1, a: 92d, b: c4b, y: 800     ú∞x  › @Í          
ì&ê          ‹s              sÄ   ó#ê    s%Äú∏∞sÄ    ú∞P    

         38(             3900000): PASS, mode: 1, a: acf, b: bcb, y: 800     ú∞x  › @Í          
ì&ê          xs              sÄ   ó$–    s%Äú∏∞sÄ    ú∞P    

         39(             4000000): PASS, mode: 1, a: bd6, b: c76, y: 84c     ú∞x  › @Í          
ì&ê          ös              sÄ   ó$P    s%Äú∏∞sÄ    ú∞P    

         40(             4100000): PASS, mode: 1, a: be0, b: d8b, y: 96b     ú∞x  ›  v      L    ì&ê    ì&ê    s              sÄ   ó%@    s%Ä    sÄ  Lú∞P    

         41(             4200000): PASS, mode: 1, a: a97, b: 864, y: 800     ú∞x  ›  
ã      	k   
ì&ê          ks              sÄ   ó#ê    s%Ä    sÄ  	kú∞P    

         42(             4300000): PASS, mode: 1, a: aa9, b: e2f, y: 8d8     ú∞x  › @Ë           ì&ê    ì&ê    s              sÄ   ó"†    s%Äú∏∞sÄ    ú∞P    

         43(             4400000): PASS, mode: 1, a: a03, b: e78, y: 87b     ú∞x  ›  /      ÿ    ì&ê    ì&ê    s              sÄ   ó$∞    s%Ä    sÄ  ÿú∞P    

         44(             4500000): PASS, mode: 1, a: 9ec, b: b94, y: 800     ú∞x  ›  x      {   
ì&ê          {s              sÄ   ó$0    s%Ä    sÄ  {ú∞P    

         45(             4600000): PASS, mode: 1, a: 92a, b: ccb, y: 800     ú∞x  › @Ë           ì&ê    ì&ê    s              sÄ   ó$p    s%Äú∏∞sÄ    ú∞P    

         46(             4700000): PASS, mode: 1, a: 50b, b: 6d3, y: 7ff     ú∞x  › @Í          
ì&ê          ıs              sÄ   ó#ê    s%Äú∏∞sÄ    ú∞P    

         47(             4800000): PASS, mode: 1, a: 5af, b: 405, y: 7ff     ú∞x  › @Ë      ˇ    ì&ê    ì&ê    s              sÄ   ú’»    s%Äú∏∞sÄ    ú∞P    

         48(             4900000): PASS, mode: 1, a: 747, b: 4a5, y: 7ff     ú∞x  › @Í      ˇ   
ì&ê          	¥s              sÄ   ó"Ä    s%Äú∏∞sÄ    ú∞P    

         49(             5000000): PASS, mode: 1, a: 656, b: 02d, y: 683     ú∞x  › @Í      ˇ   
ì&ê          Ïs              sÄ   ó"∞    s%Äú∏∞sÄ    ú∞P    

         50(             5100000): PASS, mode: 1, a: 568, b: 2ea, y: 7ff     ú∞x  ›   -      É    ì&ê    ì&ê    s              sÄ   ó$@    s%Ä    sÄ  Éú∞P    

         51(             5200000): PASS, mode: 1, a: 654, b: 2cc, y: 7ff     ú∞x  › @Ë      ˇ    ì&ê    ì&ê    s              sÄ   ó$0    s%Äú∏∞sÄ    ú∞P    

         52(             5300000): PASS, mode: 1, a: 400, b: 301, y: 701     ú∞x  › @Í      ˇ   
ì&ê          	 s              sÄ   ó%@    s%Äú∏∞sÄ    ú∞P    

         53(             5400000): PASS, mode: 1, a: 589, b: 2a5, y: 7ff     ú∞x  ›            ì&ê    ì&ê    s              sÄ   ó%p    s%Ä    sÄ  ú∞P    

         54(             5500000): PASS, mode: 1, a: 426, b: 0df, y: 505     ú∞x  › @Ë      ˇ    ì&ê    ì&ê    s              sÄ   ó$ê    s%Äú∏∞sÄ    ú∞P    

         55(             5600000): PASS, mode: 1, a: 436, b: 53a, y: 7ff     ú∞x  ›   ﬂ          ì&ê    ì&ê    s              sÄ   ó#     s%Ä    sÄ  ú∞P    

         56(             5700000): PASS, mode: 1, a: 79f, b: 5cc, y: 7ff     ú∞x  › @Ë      ˇ    ì&ê    ì&ê    s              sÄ   ó$0    s%Äú∏∞sÄ    ú∞P    

         57(             5800000): PASS, mode: 1, a: 691, b: 1ce, y: 7ff     ú∞x  › @Í      ˇ   
ì&ê          
ks              sÄ   ó$–    s%Äú∏∞sÄ    ú∞P    

         58(             5900000): PASS, mode: 1, a: 6a8, b: 144, y: 7ec     ú∞x  › @Í      ˇ   
ì&ê          _s              sÄ   ó#ê    s%Äú∏∞sÄ    ú∞P    

         59(             6000000): PASS, mode: 1, a: 65b, b: 010, y: 66b     ú∞x  ›  D      Ï    ì&ê    ì&ê    s              sÄ   ó$‡    s%Ä    sÄ  Ïú∞P    

         60(             6100000): PASS, mode: 1, a: 4f5, b: 6c6, y: 7ff     ú∞x  ›         k   
ì&ê          ks              sÄ   ó$Ä    s%Ä    sÄ  kú∞P    

         61(             6200000): PASS, mode: 1, a: e1c, b: 134, y: f50     ú∞x  › @Ë      ˇ    ì&ê    ì&ê    s              sÄ   ó&0    s%Äú∏∞sÄ    ú∞P    

         62(             6300000): PASS, mode: 1, a: 8f8, b: 7ef, y: 0e7     ú∞x  ›  4      P    ì&ê    ì&ê    s              sÄ   ú’»    s%Ä    sÄ  Pú∞P    

         63(             6400000): PASS, mode: 1, a: dfe, b: 17a, y: f78     ú∞x  ›  Ô       Á    ì&ê    ì&êúÏPs              sÄ   ó#     s%Ä    sÄ   Áú∞P    

         64(             6500000): PASS, mode: 1, a: 90f, b: 318, y: c27     ú∞x  ›  z      x    ì&ê    ì&êúÏPs              sÄ   ó%`    s%Ä    sÄ  xú∞P    

         65(             6600000): PASS, mode: 1, a: b8b, b: 7d3, y: 35e     ú∞x  ›        '   
ì&ê          's              sÄ   ó%‡    s%Ä    sÄ  'ú∞P    

         66(             6700000): PASS, mode: 1, a: ee8, b: 6dc, y: 5c4     ú∞x  ›  ”      ^    ì&ê    ì&êúÏPs              sÄ   ó$@    s%Ä    sÄ  ^ú∞P    

         67(             6800000): PASS, mode: 1, a: d20, b: 7e0, y: 500     ú∞x  ›  ‹      ƒ   
ì&ê          ƒs              sÄ   ó#∞    s%Ä    sÄ  ƒú∞P    

         68(             6900000): PASS, mode: 1, a: b7a, b: 24f, y: dc9     ú∞x  ›  ‡          
ì&ê           s              sÄ   ó"†    s%Ä    sÄ   ú∞P    

         69(             7000000): PASS, mode: 1, a: c9f, b: 5b9, y: 258     ú∞x  ›  O      
…    ì&ê    ì&êúÏPs              sÄ   ó#ê    s%Ä    sÄ  
…ú∞P    

         70(             7100000): PASS, mode: 1, a: 995, b: 36f, y: d04     ú∞x  ›  π      X    ì&ê    ì&êúÏPs              sÄ   ó%0    s%Ä    sÄ  Xú∞P    

         71(             7200000): PASS, mode: 1, a: cc3, b: 40c, y: 0cf     ú∞x  ›  o      
    ì&ê    ì&êúÏPs              sÄ   ó$∞    s%Ä    sÄ  
ú∞P    

         72(             7300000): PASS, mode: 1, a: 812, b: 107, y: 919     ú∞x  ›         œ    ì&ê    ì&êúÏPs              sÄ   ó&0    s%Ä    sÄ   œú∞P    

         73(             7400000): PASS, mode: 1, a: 9fb, b: 194, y: b8f     ú∞x  ›        	    ì&ê    ì&êúÏPs              sÄ   ó#ê    s%Ä    sÄ  	ú∞P    

         74(             7500000): PASS, mode: 1, a: 817, b: 6eb, y: f02     ú∞x  ›  î      è   
ì&ê          ès              sÄ   ó$‡    s%Ä    sÄ  èú∞P    

         75(             7600000): PASS, mode: 1, a: ac4, b: 40e, y: ed2     ú∞x  ›  Î         
ì&ê          s              sÄ   ó%     s%Ä    sÄ  ú∞P    

         76(             7700000): PASS, mode: 1, a: ac4, b: 40e, y: ed2     ú∞x  ›  Î         
ì&ê          s              sÄ   ó%     s%Ä    sÄ  ú∞P    

         77(             7800000): PASS, mode: 1, a: ac4, b: 40e, y: ed2     ú∞x  ›  Î         
ì&ê          s              sÄ   ó%     s%Ä    sÄ  ú∞P    

         78(             7900000): PASS, mode: 1, a: ac4, b: 40e, y: ed2     ú∞x  ›  Î         
ì&ê          s              sÄ   ó%     s%Ä    sÄ  ú∞P    

         79(             8000000): PASS, mode: 1, a: ac4, b: 40e, y: ed2     ú∞x  ›  Î         
ì&ê          s              sÄ   ó%     s%Ä    sÄ  ú∞P    

         80(             8100000): PASS, mode: 1, a: ac4, b: 40e, y: ed2     ú∞x  ›  Î         
ì&ê          s              sÄ   ó%     s%Ä    sÄ  ú∞P    

         81(             8200000): PASS, mode: 1, a: ac4, b: 40e, y: ed2     ú∞x  ›  Î         
ì&ê          s              sÄ   ó%     s%Ä    sÄ  ú∞P    

         82(             8300000): PASS, mode: 1, a: ac4, b: 40e, y: ed2     ú∞x  ›  Î         
ì&ê          s              sÄ   ó%     s%Ä    sÄ  ú∞P    

         83(             8400000): PASS, mode: 1, a: ac4, b: 40e, y: ed2     ú∞x  ›  Î         
ì&ê          s              sÄ   ó%     s%Ä    sÄ  ú∞P    

PASS: All vectors passed.

$finish called at time : 8400 ns : File "C:/Users/coope/Documents/MSU-ECE-DSD/lab3/tb_satadd.sv" Line 67
