DSD-Labs/lab4/Crm932_lab_4/crm932_lab4_part1/lab4.sim/sim_1/impl/timing/xsim/simulate.log
Time resolution is 1 ps
WARNING: file ../../../../multadd_vectors.txt could not be opened
          0(              140000):PASS, x1: 080, x2: 100, x3: 3c0, y: 080
          1(              180000):PASS, x1: 0e2, x2: 386, x3: 31d, y: 3b4
          2(              220000):PASS, x1: 0ef, x2: 381, x3: 0c7, y: 2d5
          3(              260000):PASS, x1: 099, x2: 0fc, x3: 024, y: 03f
          4(              300000):PASS, x1: 3b9, x2: 0ff, x3: 3a5, y: 0f0
          5(              340000):PASS, x1: 3a9, x2: 3b8, x3: 31a, y: 071
          6(              380000):PASS, x1: 376, x2: 031, x3: 024, y: 051
          7(              420000):PASS, x1: 3b5, x2: 301, x3: 3f5, y: 38b
          8(              460000):PASS, x1: 34c, x2: 359, x3: 05a, y: 3c4
          9(              500000):PASS, x1: 37f, x2: 038, x3: 015, y: 059
         10(              540000):PASS, x1: 0a9, x2: 05c, x3: 35d, y: 036
         11(              580000):PASS, x1: 393, x2: 096, x3: 341, y: 0f3
         12(              620000):PASS, x1: 3bd, x2: 3f0, x3: 061, y: 3e7
         13(              660000):PASS, x1: 011, x2: 32d, x3: 0e5, y: 301
         14(              700000):PASS, x1: 373, x2: 310, x3: 3d1, y: 3c8
         15(              740000):PASS, x1: 066, x2: 0a6, x3: 3cf, y: 04d
         16(              780000):PASS, x1: 3b2, x2: 0f9, x3: 30d, y: 13c
         17(              820000):PASS, x1: 314, x2: 08e, x3: 31a, y: 141
         18(              860000):PASS, x1: 3ae, x2: 0fd, x3: 349, y: 122
PASS: All vectors passed.
$finish called at time : 860 ns : File "C:/Users/coope/Documents/MSU-ECE-DSD/lab4/tb_lab4dpath.sv" Line 77
