DSD-Labs/lab3/project_1/project_1.sim/sim_1/impl/timing/xsim/simulate.log
Time resolution is 1 ps
WARNING: file ../../../../satadd_vectors.txt could not be opened
          1(              200000): PASS, mode: 2, a: 004, b: 005, y: 009                                                                                                    #

          2(              300000): PASS, mode: 1, a: 004, b: 005, y: 009                                                                                                    #

          3(              400000): PASS, mode: 1, a: 004, b: 005, y: 009                                                                                                    #

          4(              500000): PASS, mode: 2, a: b00, b: 100, y: c00                                                                                                    #

          5(              600000): PASS, mode: 1, a: b00, b: 100, y: c00                                                                                                    #

          6(              700000): PASS, mode: 1, a: b00, b: 100, y: c00                                                                                                    #

          7(              800000): PASS, mode: 2, a: 7ff, b: 001, y: 800                                                                                                    #

          8(              900000): PASS, mode: 1, a: 7ff, b: 001, y: 7ff                                                                                                    #

          9(             1000000): PASS, mode: 0, a: 7ff, b: 001, y: 800                                                                                                    #

         10(             1100000): PASS, mode: 2, a: fff, b: 001, y: 000                                                                                                    #

         11(             1200000): PASS, mode: 1, a: fff, b: 001, y: 000                                                                                                    #

         12(             1300000): PASS, mode: 0, a: fff, b: 001, y: fff                                                                                            #unsigned

         13(             1400000): PASS, mode: 2, a: 800, b: fff, y: 7ff                                                                                                    #

         14(             1500000): PASS, mode: 1, a: 800, b: fff, y: 800                                                                                                    #

         15(             1600000): PASS, mode: 0, a: 800, b: fff, y: fff                                                                                                    #

         16(             1700000): PASS, mode: 0, a: 86c, b: fde, y: fff             КЂ      я             @¶ц
И AЄ            ЙьЂ   я    ц ЂЙх ћиPќЮxќЮШҐUT  
0

         17(             1800000): PASS, mode: 0, a: 597, b: ecc, y: fff     ц Ё    Ґ:Ф                   @Xщ PЙк              ЙьЂ                        '    щЁ

         18(             1900000): PASS, mode: 0, a: f93, b: 539, y: fff             КЂ      я             @¶ц
И AЄ            ЙьЂ   я    ц ЂЙх ћиPќЮxќЮШ¤©„  
:

         19(             2000000): PASS, mode: 0, a: f68, b: d06, y: fff     ц Ё    ҐLd                   @vGщMPЙк              ЙьЂ                              щLЁ

         20(             2100000): PASS, mode: 0, a: 1a3, b: 2fc, y: 49f     ц Ё    Ґ:Ф                   @Xщ PЙк              ЙьЂ                        '    щЁ

         21(             2200000): PASS, mode: 0, a: 551, b: a5c, y: fad             КЂ      џ             @¶ц
И AЄ            ЙьЂ   џ    ц ЂЙх ћиPќЮxќЮШ¤Ц  
7

         22(             2300000): PASS, mode: 0, a: d6d, b: f33, y: fff             КЂ      ­             @¶ц
И AЄ            ЙьЂ   ­    ц ЂЙх ћиPќЮxќЮШ¤Ф|  
4

         23(             2400000): PASS, mode: 0, a: 0a8, b: c50, y: cf8             КЂ      я             @¶ц
И AЄ            ЙьЂ   я    ц ЂЙх ћиPќЮxќЮШ¤ЇL  
/

         24(             2500000): PASS, mode: 0, a: 916, b: de9, y: fff             КЂ      ш             @¶ц
И AЄ            ЙьЂ   ш    ц ЂЙх ћиPќЮxќЮШ¤®  
7

         25(             2600000): PASS, mode: 0, a: d7b, b: 38a, y: fff             КЂ      я             @¶ц
И AЄ            ЙьЂ   я    ц ЂЙх ћиPќЮxќЮШҐz€  
7

         26(             2700000): PASS, mode: 0, a: a10, b: 8a8, y: fff             КЂ      я             @¶ц
И AЄ            ЙьЂ   я    ц ЂЙх ћиPќЮxќЮШҐq|  
/

         27(             2800000): PASS, mode: 0, a: f96, b: 9f9, y: fff             КЂ      я             @¶ц
И AЄ            ЙьЂ   я    ц ЂЙх ћиPќЮxќЮШҐFИ  
3

         28(             2900000): PASS, mode: 0, a: 6f0, b: 0ed, y: 7dd     ц Ё    Ґt                   @vGщMPЙк              ЙьЂ ц ЂЙяЂ Ґ@         шШ    щLЁ

         29(             3000000): PASS, mode: 0, a: 5e5, b: e82, y: fff             КЂ      Э             @¶ц
И AЄ            ЙьЂ   Э    ц ЂЙх ћиPќЮxќЮШҐWи  
7

         30(             3100000): PASS, mode: 0, a: d34, b: 564, y: fff             КЂ      я             @¶ц
И AЄ            ЙьЂ   я    ц ЂЙх ћиPќЮxќЮШ¤ЦЊ  
/

         31(             3200000): PASS, mode: 1, a: 893, b: ba1, y: 800     ц Ё    ҐNd                   @qщEpЙк              ЙьЂ                              щDИ

         32(             3300000): PASS, mode: 1, a: af1, b: eb7, y: 9a8             КЂ                    @¶ц
И AЄ            ЙьЂ        ц ЂЙх ћиPќЮxќЮШҐUT  
0

         33(             3400000): PASS, mode: 1, a: a04, b: c54, y: 800             КЂ      	Ё             @¶ц
И AЄ            ЙьЂ   	Ё    ц ЂЙх ћиPќЮxќЮШҐЋЁ  
7

         34(             3500000): PASS, mode: 1, a: 84e, b: a98, y: 800             КЂ                    @¶ц
И AЄ            ЙьЂ        ц ЂЙх ћиPќЮxќЮШҐUШ  
4

         35(             3600000): PASS, mode: 1, a: 967, b: 8e9, y: 800     ц Ё    Ґ>Ф                   @‡'щfЙк              ЙьЂ ц ЂЙяЂ Ґ#@         чП(    щeh

         36(             3700000): PASS, mode: 1, a: af7, b: ce5, y: 800     ц Ё    ¤GP                   @‡'щfЙк              ЙьЂ                              щeh

         37(             3800000): PASS, mode: 1, a: 92d, b: c4b, y: 800     ц Ё    Ґiь                   @qщEpЙк              ЙьЂ                             щDИ

         38(             3900000): PASS, mode: 1, a: acf, b: bcb, y: 800             КЂ                    @¶ц
И AЄ            ЙьЂ        ц ЂЙх ћиPќЮxќЮШҐЋ$  
4

         39(             4000000): PASS, mode: 1, a: bd6, b: c76, y: 84c             КЂ                    @¶ц
И AЄ            ЙьЂ        ц ЂЙх ћиPќЮxќЮШ¤ѕґ  
0

         40(             4100000): PASS, mode: 1, a: be0, b: d8b, y: 96b             КЂ      L             @¶ц
И AЄ            ЙьЂ   L    ц ЂЙх ћиPќЮxќЮШ¤Ё@  
4

         41(             4200000): PASS, mode: 1, a: a97, b: 864, y: 800             КЂ      	k             @¶ц
И AЄ            ЙьЂ   	k    ц ЂЙх ћиPќЮxќЮШ¤ВP  
4

         42(             4300000): PASS, mode: 1, a: aa9, b: e2f, y: 8d8             КЂ                    @¶ц
И AЄ            ЙьЂ        ц ЂЙх ћиPќЮxќЮШ¤ГX  
7

         43(             4400000): PASS, mode: 1, a: a03, b: e78, y: 87b             КЂ      Ш             @¶ц
И AЄ            ЙьЂ   Ш    ц ЂЙх ћиPќЮxќЮШҐUШ  
4

         44(             4500000): PASS, mode: 1, a: 9ec, b: b94, y: 800             КЂ      {             @¶ц
И AЄ            ЙьЂ   {    ц ЂЙх ћиPќЮxќЮШ¤ВФ  
:

         45(             4600000): PASS, mode: 1, a: 92a, b: ccb, y: 800             КЂ                    @¶ц
И AЄ            ЙьЂ        ц ЂЙх ћиPќЮxќЮШ¤ВP  
4

         46(             4700000): PASS, mode: 1, a: 50b, b: 6d3, y: 7ff     ц Ё    Ґ†њ                   @‡'щfЙк              ЙьЂ ц ЂЙяЂ Ґ{         чП(    щeh

         47(             4800000): PASS, mode: 1, a: 5af, b: 405, y: 7ff             КЂ      я             @¶ц
И AЄ            ЙьЂ   я    ц ЂЙх ћиPќЮxќЮШ¤ђ$  
0

         48(             4900000): PASS, mode: 1, a: 747, b: 4a5, y: 7ff     ц Ё    Ґ^ь                   @ZWщ#°Йк              ЙьЂ                             щ#

         49(             5000000): PASS, mode: 1, a: 656, b: 02d, y: 683     ц Ё    ¤S0                   @vGщMPЙк              ЙьЂ                             щLЁ

         50(             5100000): PASS, mode: 1, a: 568, b: 2ea, y: 7ff             КЂ      ѓ             @¶ц
И AЄ            ЙьЂ   ѓ    ц ЂЙх ћиPќЮxќЮШ¤®  
4

         51(             5200000): PASS, mode: 1, a: 654, b: 2cc, y: 7ff             КЂ      я             @¶ц
И AЄ            ЙьЂ   я    ц ЂЙх ћиPќЮxќЮШҐЋЁ  
7

         52(             5300000): PASS, mode: 1, a: 400, b: 301, y: 701     ц Ё    Ґe|                   @vGщMPЙк              ЙьЂ                             щLЁ

         53(             5400000): PASS, mode: 1, a: 589, b: 2a5, y: 7ff             КЂ                   @¶ц
И AЄ            ЙьЂ       ц ЂЙх ћиPќЮxќЮШ¤Ґё  
6

         54(             5500000): PASS, mode: 1, a: 426, b: 0df, y: 505             КЂ      я             @¶ц
И AЄ            ЙьЂ   я    ц ЂЙх ћиPќЮxќЮШ¤®  
4

         55(             5600000): PASS, mode: 1, a: 436, b: 53a, y: 7ff             КЂ                   @¶ц
И AЄ            ЙьЂ       ц ЂЙх ћиPќЮxќЮШҐЋЁ  
7

         56(             5700000): PASS, mode: 1, a: 79f, b: 5cc, y: 7ff             КЂ      я             @¶ц
И AЄ            ЙьЂ   я    ц ЂЙх ћиPќЮxќЮШҐ›°  
0

         57(             5800000): PASS, mode: 1, a: 691, b: 1ce, y: 7ff     ц Ё    Ґ>Ф                   @‡'щfЙк              ЙьЂ ш©иЙяЂ              ш©    щeh

         58(             5900000): PASS, mode: 1, a: 6a8, b: 144, y: 7ec     ц Ё    Ґ>Ф                   @‡'щfЙк              ЙьЂ чкЂЙяЂ              чк    щeh

         59(             6000000): PASS, mode: 1, a: 65b, b: 010, y: 66b             КЂ      м             @¶ц
И AЄ            ЙьЂ   м    ц ЂЙх ћиPќЮxќЮШҐpt  
6

         60(             6100000): PASS, mode: 1, a: 4f5, b: 6c6, y: 7ff             КЂ      k             @¶ц
И AЄ            ЙьЂ   k    ц ЂЙх ћиPќЮxќЮШ¤ГX  
7

         61(             6200000): PASS, mode: 1, a: e1c, b: 134, y: f50             КЂ      я             @¶ц
И AЄ            ЙьЂ   я    ц ЂЙх ћиPќЮxќЮШ¤Ё@  
4

         62(             6300000): PASS, mode: 1, a: 8f8, b: 7ef, y: 0e7             КЂ      P             @¶ц
И AЄ            ЙьЂ   P    ц ЂЙх ћиPќЮxќЮШҐҐ8  
4

         63(             6400000): PASS, mode: 1, a: dfe, b: 17a, y: f78             КЂ       з             @¶ц
И AЄ            ЙьЂ    з    ц ЂЙх ћиPќЮxќЮШ¤БМ  
4

         64(             6500000): PASS, mode: 1, a: 90f, b: 318, y: c27             КЂ      x             @¶ц
И AЄ            ЙьЂ   x    ц ЂЙх ћиPќЮxќЮШҐЋЁ  
7

         65(             6600000): PASS, mode: 1, a: b8b, b: 7d3, y: 35e             КЂ      '             @¶ц
И AЄ            ЙьЂ   '    ц ЂЙх ћиPќЮxќЮШ¤Ф|  
4

         66(             6700000): PASS, mode: 1, a: ee8, b: 6dc, y: 5c4             КЂ      ^             @¶ц
И AЄ            ЙьЂ   ^    ц ЂЙх ћиPќЮxќЮШ¤®  
7

         67(             6800000): PASS, mode: 1, a: d20, b: 7e0, y: 500             КЂ      Д             @¶ц
И AЄ            ЙьЂ   Д    ц ЂЙх ћиPќЮxќЮШҐpш  
4

         68(             6900000): PASS, mode: 1, a: b7a, b: 24f, y: dc9             КЂ                    @¶ц
И AЄ            ЙьЂ        ц ЂЙх ћиPќЮxќЮШҐЋ$  
7

         69(             7000000): PASS, mode: 1, a: c9f, b: 5b9, y: 258             КЂ      
Й             @¶ц
И AЄ            ЙьЂ   
Й    ц ЂЙх ћиPќЮxќЮШҐЋЁ  
7

         70(             7100000): PASS, mode: 1, a: 995, b: 36f, y: d04             КЂ      X             @¶ц
И AЄ            ЙьЂ   X    ц ЂЙх ћиPќЮxќЮШҐz€  
7

         71(             7200000): PASS, mode: 1, a: cc3, b: 40c, y: 0cf             КЂ      
             @¶ц
И AЄ            ЙьЂ   
    ц ЂЙх ћиPќЮxќЮШ¤®  
7

         72(             7300000): PASS, mode: 1, a: 812, b: 107, y: 919             КЂ       П             @¶ц
И AЄ            ЙьЂ    П    ц ЂЙх ћиPќЮxќЮШҐЋЁ  
7

         73(             7400000): PASS, mode: 1, a: 9fb, b: 194, y: b8f             КЂ      	             @¶ц
И AЄ            ЙьЂ   	    ц ЂЙх ћиPќЮxќЮШҐpш  
4

         74(             7500000): PASS, mode: 1, a: 817, b: 6eb, y: f02             КЂ      Џ             @¶ц
И AЄ            ЙьЂ   Џ    ц ЂЙх ћиPќЮxќЮШҐpt  
6

         75(             7600000): PASS, mode: 1, a: ac4, b: 40e, y: ed2             КЂ                   @¶ц
И AЄ            ЙьЂ       ц ЂЙх ћиPќЮxќЮШ¤ГX  
7

         76(             7700000): PASS, mode: 1, a: ac4, b: 40e, y: ed2             КЂ                   @¶ц
И AЄ            ЙьЂ       ц ЂЙх ћиPќЮxќЮШ¤ГX  
7

         77(             7800000): PASS, mode: 1, a: ac4, b: 40e, y: ed2             КЂ                   @¶ц
И AЄ            ЙьЂ       ц ЂЙх ћиPќЮxќЮШ¤ГX  
7

         78(             7900000): PASS, mode: 1, a: ac4, b: 40e, y: ed2             КЂ                   @¶ц
И AЄ            ЙьЂ       ц ЂЙх ћиPќЮxќЮШ¤ГX  
7

         79(             8000000): PASS, mode: 1, a: ac4, b: 40e, y: ed2             КЂ                   @¶ц
И AЄ            ЙьЂ       ц ЂЙх ћиPќЮxќЮШ¤ГX  
7

         80(             8100000): PASS, mode: 1, a: ac4, b: 40e, y: ed2             КЂ                   @¶ц
И AЄ            ЙьЂ       ц ЂЙх ћиPќЮxќЮШ¤ГX  
7

         81(             8200000): PASS, mode: 1, a: ac4, b: 40e, y: ed2             КЂ                   @¶ц
И AЄ            ЙьЂ       ц ЂЙх ћиPќЮxќЮШ¤ГX  
7

         82(             8300000): PASS, mode: 1, a: ac4, b: 40e, y: ed2             КЂ                   @¶ц
И AЄ            ЙьЂ       ц ЂЙх ћиPќЮxќЮШ¤ГX  
7

         83(             8400000): PASS, mode: 1, a: ac4, b: 40e, y: ed2             КЂ                   @¶ц
И AЄ            ЙьЂ       ц ЂЙх ћиPќЮxќЮШ¤ГX  
7

PASS: All vectors passed.

$finish called at time : 8400 ns : File "C:/Users/coope/Documents/MSU-ECE-DSD/lab3/tb_satadd.sv" Line 67
